…
``` r
train_A = df_re |> filter(route_name=='A')
train_A
```

    ## # A tibble: 273 × 10
    ##    route_number route_name line  station_name station_latitude station_longitude
    ##    <chr>        <chr>      <chr> <chr>                   <dbl>             <dbl>
    ##  1 route1       A          42nd… Times Square             40.8             -74.0
    ##  2 route1       A          8 Av… 125th St                 40.8             -74.0
    ##  3 route1       A          8 Av… 125th St                 40.8             -74.0
    ##  4 route1       A          8 Av… 125th St                 40.8             -74.0
    ##  5 route1       A          8 Av… 125th St                 40.8             -74.0
    ##  6 route1       A          8 Av… 125th St                 40.8             -74.0
    ##  7 route1       A          8 Av… 125th St                 40.8             -74.0
    ##  8 route1       A          8 Av… 145th St                 40.8             -73.9
    ##  9 route1       A          8 Av… 145th St                 40.8             -73.9
    ## 10 route1       A          8 Av… 145th St                 40.8             -73.9
    ## # ℹ 263 more rows
    ## # ℹ 4 more variables: entry <lgl>, vending <lgl>, entrance_type <chr>,
    ## #   ada <lgl>
…
df_combine = rbind(mr_trash_wheel, prof_trash_wheel)
df_combine = rbind(df_combine, gwy_trash_wheel)
df_combine
```

    ## # A tibble: 1,033 × 15
    ##    dumpster month year  date                weight_tons volume_cubic_yards
    ##       <dbl> <chr> <chr> <dttm>                    <dbl>              <dbl>
    ##  1        1 May   2014  2014-05-16 00:00:00        4.31                 18
    ##  2        2 May   2014  2014-05-16 00:00:00        2.74                 13
    ##  3        3 May   2014  2014-05-16 00:00:00        3.45                 15
    ##  4        4 May   2014  2014-05-17 00:00:00        3.1                  15
    ##  5        5 May   2014  2014-05-17 00:00:00        4.06                 18
    ##  6        6 May   2014  2014-05-20 00:00:00        2.71                 13
    ##  7        7 May   2014  2014-05-21 00:00:00        1.91                  8
    ##  8        8 May   2014  2014-05-28 00:00:00        3.7                  16
    ##  9        9 June  2014  2014-06-05 00:00:00        2.52                 14
    ## 10       10 June  2014  2014-06-11 00:00:00        3.76                 18
    ## # ℹ 1,023 more rows
    ## # ℹ 9 more variables: plastic_bottles <dbl>, polystyrene <dbl>,
    ## #   cigarette_butts <dbl>, glass_bottles <dbl>, plastic_bags <dbl>,
    ## #   wrappers <dbl>, sports_balls <int>, homes_powered <dbl>, wheel_type <chr>
…
